module axiata-test-code-vandy

go 1.21.1

toolchain go1.22.2

require (
	github.com/go-playground/validator/v10 v10.21.0
	github.com/go-sql-driver/mysql v1.8.1
	github.com/gofiber/fiber/v2 v2.52.4
	github.com/rubenv/sql-migrate v1.6.1
	github.com/vandyahmad24/alat-bantu v0.0.4
	go.uber.org/zap v1.27.0
)

require (
	filippo.io/edwards25519 v1.1.0 // indirect
	github.com/andybalholm/brotli v1.0.5 // indirect
	github.com/gabriel-vasile/mimetype v1.4.3 // indirect
	github.com/go-gorp/gorp/v3 v3.1.0 // indirect
	github.com/go-playground/locales v0.14.1 // indirect
	github.com/go-playground/universal-translator v0.18.1 // indirect
	github.com/google/uuid v1.5.0 // indirect
	github.com/joho/godotenv v1.5.1 // indirect
	github.com/klauspost/compress v1.17.0 // indirect
	github.com/leodido/go-urn v1.4.0 // indirect
	github.com/mattn/go-colorable v0.1.13 // indirect
	github.com/mattn/go-isatty v0.0.20 // indirect
	github.com/mattn/go-runewidth v0.0.15 // indirect
	github.com/rivo/uniseg v0.2.0 // indirect
	github.com/sirupsen/logrus v1.9.3 // indirect
	github.com/valyala/bytebufferpool v1.0.0 // indirect
	github.com/valyala/fasthttp v1.51.0 // indirect
	github.com/valyala/tcplisten v1.0.0 // indirect
	go.uber.org/multierr v1.10.0 // indirect
	golang.org/x/crypto v0.19.0 // indirect
	golang.org/x/net v0.21.0 // indirect
	golang.org/x/sys v0.17.0 // indirect
	golang.org/x/text v0.14.0 // indirect
)
